{
  "AWSTemplateFormatVersion": "2010-09-09",
  "Parameters": {
    "ProjectName": {
      "Type": "String",
      "Description": "Project stack name"
    },
    "ClusterArn": {
      "Type": "String",
      "Description": "Cluster ARN descriptor"
    },
    "LogGroupName": {
      "Type": "String",
      "Description": "Log Group Name configuration"
    },
    "Subnets": {
      "Type": "List<AWS::EC2::Subnet::Id>",
      "Description": "Subnet identifiers"
    },
    "CloudMapNamespaceName": {
      "Type": "String",
      "Description": "CloudMap resource namespace name"
    },
    "SecurityGroup": {
      "Type": "AWS::EC2::SecurityGroup::Id",
      "Description": "Default Security Group identifier"
    },
    "TaskExecutionRoleARN": {
      "Type": "String",
      "Description": "TaskExecution role for application"
    },
    "VolumeFileSystemId": {
      "Type": "String",
      "Description": "EFS volume identifier"
    },
    "VolumeFileSystemAccessPointId": {
      "Type": "String",
      "Description": "EFS volume access point identifier"
    },
    "Cpu": {
      "Type": "Number",
      "Default": "256",
      "Description": "Amount of CPU units to allocate"
    },
    "Memory": {
      "Type": "Number",
      "Default": "512",
      "Description": "Amount of Memory units to allocate"
    }
  },
  "Resources": {
    "GrafanaService": {
      "Properties": {
        "ServiceName": "GrafanaService",
        "Cluster": {
          "Ref": "ClusterArn"
        },
        "DeploymentConfiguration": {
          "MaximumPercent": 200,
          "MinimumHealthyPercent": 100
        },
        "DeploymentController": {
          "Type": "ECS"
        },
        "DesiredCount": 1,
        "LaunchType": "FARGATE",
        "NetworkConfiguration": {
          "AwsvpcConfiguration": {
            "AssignPublicIp": "ENABLED",
            "SecurityGroups": [
              {
                "Ref": "SecurityGroup"
              }
            ],
            "Subnets": {
              "Ref": "Subnets"
            }
          }
        },
        "PlatformVersion": "1.4.0",
        "PropagateTags": "SERVICE",
        "SchedulingStrategy": "REPLICA",
        "Tags": [
          {
            "Key": "com.docker.compose.project",
            "Value": {
              "Ref": "ProjectName"
            }
          },
          {
            "Key": "com.docker.compose.service",
            "Value": "grafana"
          },
          {
            "Key": "ServiceDiscoveryNamespaceName",
            "Value": {
              "Ref": "CloudMapNamespaceName"
            }
          }
        ],
        "TaskDefinition": {
          "Ref": "GrafanaTaskDefinition"
        }
      },
      "Type": "AWS::ECS::Service"
    },
    "GrafanaTaskDefinition": {
      "Properties": {
        "ContainerDefinitions": [
          {
            "Essential": true,
            "Image": "mesabg/grafana:7.3.0",
            "LinuxParameters": {},
            "LogConfiguration": {
              "LogDriver": "awslogs",
              "Options": {
                "awslogs-group": {
                  "Ref": "LogGroupName"
                },
                "awslogs-region": {
                  "Ref": "AWS::Region"
                },
                "awslogs-stream-prefix": "grafana"
              }
            },
            "MountPoints": [
              {
                "ContainerPath": "/var/lib/grafana",
                "SourceVolume": "grafana"
              }
            ],
            "Name": "grafana"
          }
        ],
        "Cpu": {
          "Ref": "Cpu"
        },
        "ExecutionRoleArn": {
          "Ref": "TaskExecutionRoleARN"
        },
        "Family": {
          "Fn::Join": [
            "-",
            [
              {
                "Ref": "ProjectName"
              },
              "grafana"
            ]
          ]
        },
        "Memory": {
          "Ref": "Memory"
        },
        "NetworkMode": "awsvpc",
        "RequiresCompatibilities": [
          "FARGATE"
        ],
        "TaskRoleArn": {
          "Ref": "TaskExecutionRoleARN"
        },
        "Volumes": [
          {
            "EFSVolumeConfiguration": {
              "AuthorizationConfig": {
                "AccessPointId": {
                  "Ref": "VolumeFileSystemAccessPointId"
                },
                "IAM": "ENABLED"
              },
              "FilesystemId": {
                "Ref": "VolumeFileSystemId"
              },
              "TransitEncryption": "ENABLED"
            },
            "Name": "grafana"
          }
        ],
        "Tags": [
          {
            "Key": "com.docker.compose.project",
            "Value": {
              "Ref": "ProjectName"
            }
          },
          {
            "Key": "com.docker.compose.service",
            "Value": "grafana"
          },
          {
            "Key": "ServiceDiscoveryNamespaceName",
            "Value": {
              "Ref": "CloudMapNamespaceName"
            }
          }
        ]
      },
      "Type": "AWS::ECS::TaskDefinition"
    }
  }
}
